{
	"info": {
		"_postman_id": "e88b7316-8075-427c-8995-a0f984008906",
		"name": "Peer39",
		"schema": "https://schema.getpostman.com/json/collection/v2.1.0/collection.json",
		"_exporter_id": "3635139"
	},
	"item": [
		{
			"name": "Category Finder",
			"item": [
				{
					"name": "Find categories by given URL",
					"request": {
						"method": "POST",
						"header": [],
						"body": {
							"mode": "raw",
							"raw": "{\n    \"url\": \"https://edition.cnn.com/sport\"\n\n}",
							"options": {
								"raw": {
									"language": "json"
								}
							}
						},
						"url": {
							"raw": "{{baseUrl}}/api/v1/category/find",
							"host": [
								"{{baseUrl}}"
							],
							"path": [
								"api",
								"v1",
								"category",
								"find"
							]
						}
					},
					"response": []
				},
				{
					"name": "Find categories by given subset and  URL",
					"request": {
						"method": "POST",
						"header": [],
						"body": {
							"mode": "raw",
							"raw": "{\n    \"url\": \"https://edition.cnn.com/sport\",\n    \"categories\":[\n        \"Football\"\n    ]\n}",
							"options": {
								"raw": {
									"language": "json"
								}
							}
						},
						"url": {
							"raw": "{{baseUrl}}/api/v1/category/find",
							"host": [
								"{{baseUrl}}"
							],
							"path": [
								"api",
								"v1",
								"category",
								"find"
							]
						}
					},
					"response": []
				}
			]
		}
	]
}